\relax 
\providecommand\hyper@newdestlabel[2]{}
\providecommand\HyperFirstAtBeginDocument{\AtBeginDocument}
\HyperFirstAtBeginDocument{\ifx\hyper@anchor\@undefined
\global\let\oldcontentsline\contentsline
\gdef\contentsline#1#2#3#4{\oldcontentsline{#1}{#2}{#3}}
\global\let\oldnewlabel\newlabel
\gdef\newlabel#1#2{\newlabelxx{#1}#2}
\gdef\newlabelxx#1#2#3#4#5#6{\oldnewlabel{#1}{{#2}{#3}}}
\AtEndDocument{\ifx\hyper@anchor\@undefined
\let\contentsline\oldcontentsline
\let\newlabel\oldnewlabel
\fi}
\fi}
\global\let\hyper@last\relax 
\gdef\HyperFirstAtBeginDocument#1{#1}
\providecommand\HyField@AuxAddToFields[1]{}
\providecommand\HyField@AuxAddToCoFields[2]{}
\bibstyle{apalike}
\citation{lamers1999introduction}
\citation{vink2000radiation}
\citation{lamers1999introduction}
\citation{castor1975radiation}
\citation{pittard1999x}
\citation{puls2008mass}
\citation{kudritzki2002line}
\citation{kudritzki2002line}
\@writefile{toc}{\contentsline {section}{\numberline {1}Introduction}{2}{section.1}}
\@writefile{toc}{\contentsline {paragraph}{}{2}{section*.2}}
\@writefile{toc}{\contentsline {paragraph}{}{2}{section*.3}}
\@writefile{toc}{\contentsline {paragraph}{}{2}{section*.4}}
\@writefile{toc}{\contentsline {paragraph}{}{2}{section*.5}}
\@writefile{toc}{\contentsline {section}{\numberline {2}Background}{2}{section.2}}
\@writefile{toc}{\contentsline {subsection}{\numberline {2.1}Stellar Winds}{2}{subsection.2.1}}
\newlabel{sec:winds}{{2.1}{2}{Stellar Winds}{subsection.2.1}{}}
\@writefile{toc}{\contentsline {paragraph}{}{2}{section*.6}}
\@writefile{toc}{\contentsline {paragraph}{}{2}{section*.7}}
\@writefile{toc}{\contentsline {paragraph}{}{2}{section*.8}}
\@writefile{toc}{\contentsline {paragraph}{}{2}{section*.9}}
\@writefile{toc}{\contentsline {paragraph}{}{2}{section*.10}}
\@writefile{toc}{\contentsline {paragraph}{}{2}{section*.11}}
\@writefile{toc}{\contentsline {paragraph}{}{2}{section*.12}}
\@writefile{toc}{\contentsline {paragraph}{}{2}{section*.13}}
\citation{friend1986theory}
\citation{herbst2009complex}
\citation{krugel2002physics}
\@writefile{toc}{\contentsline {paragraph}{}{3}{section*.14}}
\@writefile{toc}{\contentsline {paragraph}{}{3}{section*.15}}
\@writefile{toc}{\contentsline {paragraph}{}{3}{section*.16}}
\@writefile{lof}{\contentsline {figure}{\numberline {1}{\ignorespaces An example of a Wolf-Rayet star, WR 124, driving the formation of a nebula, credit NASA/Hubble\relax }}{3}{figure.caption.17}}
\providecommand*\caption@xref[2]{\@setref\relax\@undefined{#1}}
\newlabel{fig:wr}{{1}{3}{An example of a Wolf-Rayet star, WR 124, driving the formation of a nebula, credit NASA/Hubble\relax }{figure.caption.17}{}}
\@writefile{toc}{\contentsline {paragraph}{}{3}{section*.18}}
\@writefile{toc}{\contentsline {paragraph}{}{3}{section*.19}}
\newlabel{eqn:cak}{{5}{3}{}{equation.2.5}{}}
\@writefile{toc}{\contentsline {paragraph}{}{3}{section*.20}}
\@writefile{lof}{\contentsline {figure}{\numberline {2}{\ignorespaces CAK velocity plot}}{3}{figure.caption.21}}
\newlabel{fig:cakmod}{{2}{3}{CAK velocity plot}{figure.caption.21}{}}
\@writefile{toc}{\contentsline {subsection}{\numberline {2.2}Interstellar Dust}{3}{subsection.2.2}}
\@writefile{toc}{\contentsline {paragraph}{}{3}{section*.22}}
\@writefile{toc}{\contentsline {paragraph}{}{3}{section*.23}}
\citation{herbst2009complex}
\citation{herbst2009complex}
\citation{tielens1994physics}
\citation{tielens1994physics}
\citation{tielens1994physics}
\citation{tielens1994physics}
\citation{draine2001infrared}
\citation{sana2012binary}
\citation{prilutskii1976x}
\citation{lau2017stagnant}
\@writefile{toc}{\contentsline {paragraph}{}{4}{section*.24}}
\@writefile{lof}{\contentsline {figure}{\numberline {3}{\ignorespaces Popular models of grain-surface chemistry \cite  {herbst2009complex}\relax }}{4}{figure.caption.25}}
\newlabel{fig:grain-surface-chemistry}{{3}{4}{Popular models of grain-surface chemistry \cite {herbst2009complex}\relax }{figure.caption.25}{}}
\@writefile{toc}{\contentsline {subsubsection}{\numberline {2.2.1}Dust Destruction}{4}{subsubsection.2.2.1}}
\@writefile{toc}{\contentsline {paragraph}{}{4}{section*.26}}
\@writefile{toc}{\contentsline {paragraph}{}{4}{section*.27}}
\@writefile{lof}{\contentsline {figure}{\numberline {4}{\ignorespaces Thermal sputtering yield}}{4}{figure.caption.28}}
\newlabel{fig:sputtering}{{4}{4}{Thermal sputtering yield}{figure.caption.28}{}}
\@writefile{toc}{\contentsline {paragraph}{}{4}{section*.29}}
\@writefile{toc}{\contentsline {paragraph}{}{4}{section*.30}}
\@writefile{toc}{\contentsline {subsubsection}{\numberline {2.2.2}Dust Emission}{4}{subsubsection.2.2.2}}
\@writefile{toc}{\contentsline {paragraph}{}{4}{section*.31}}
\@writefile{toc}{\contentsline {subsection}{\numberline {2.3}Colliding Wind Binaries}{4}{subsection.2.3}}
\@writefile{toc}{\contentsline {paragraph}{}{4}{section*.32}}
\@writefile{toc}{\contentsline {paragraph}{}{4}{section*.33}}
\citation{sana2003colliding}
\citation{rauw2002phase}
\citation{rauw2002phase}
\citation{stevens1994stagnation}
\@writefile{toc}{\contentsline {paragraph}{}{5}{section*.34}}
\@writefile{toc}{\contentsline {paragraph}{}{5}{section*.35}}
\@writefile{toc}{\contentsline {paragraph}{}{5}{section*.36}}
\newlabel{eta-parameters}{{\caption@xref {eta-parameters}{ on input line 271}}{5}{}{table.caption.37}{}}
\@writefile{lot}{\contentsline {table}{\numberline {1}{\ignorespaces Parameters of simulations with varying values for $\eta $\relax }}{5}{table.caption.37}}
\@writefile{toc}{\contentsline {paragraph}{}{5}{section*.39}}
\@writefile{lof}{\contentsline {figure}{\numberline {6}{\ignorespaces X-Ray variability of the binary system HD 93403 due to orbital motion \cite  {rauw2002phase}\relax }}{5}{figure.caption.40}}
\newlabel{fig:rauwetal-xraylightcurve}{{6}{5}{X-Ray variability of the binary system HD 93403 due to orbital motion \cite {rauw2002phase}\relax }{figure.caption.40}{}}
\@writefile{toc}{\contentsline {paragraph}{}{5}{section*.41}}
\@writefile{toc}{\contentsline {paragraph}{}{5}{section*.42}}
\citation{pittard1999x}
\citation{tuthill1999dusty}
\citation{tuthill1999dusty}
\@writefile{lof}{\contentsline {figure}{\numberline {5}{\ignorespaces Density plot of a close binary system, with various values of $1/\eta $\relax }}{6}{figure.caption.38}}
\newlabel{fig:eta}{{5}{6}{Density plot of a close binary system, with various values of $1/\eta $\relax }{figure.caption.38}{}}
\@writefile{lof}{\contentsline {figure}{\numberline {7}{\ignorespaces An example of cooling within a CWB system\relax }}{6}{figure.caption.43}}
\newlabel{fig:cwbtemperature}{{7}{6}{An example of cooling within a CWB system\relax }{figure.caption.43}{}}
\@writefile{toc}{\contentsline {paragraph}{}{6}{section*.44}}
\@writefile{toc}{\contentsline {paragraph}{}{6}{section*.45}}
\@writefile{toc}{\contentsline {paragraph}{}{6}{section*.46}}
\@writefile{lof}{\contentsline {figure}{\numberline {8}{\ignorespaces An example of a ``dusty pinwheel'' CWB system, pinwheel provides an effective transport mechanism for dust to escape the system \cite  {tuthill1999dusty}\relax }}{6}{figure.caption.47}}
\newlabel{fig:dusty-pinwheel}{{8}{6}{An example of a ``dusty pinwheel'' CWB system, pinwheel provides an effective transport mechanism for dust to escape the system \cite {tuthill1999dusty}\relax }{figure.caption.47}{}}
\citation{rosswog2007introduction}
\citation{stevens1992colliding}
\citation{stevens1992colliding}
\citation{stevens1992colliding}
\@writefile{toc}{\contentsline {paragraph}{}{7}{section*.48}}
\@writefile{toc}{\contentsline {subsection}{\numberline {2.4}Strong Shocks and Instabilities}{7}{subsection.2.4}}
\@writefile{toc}{\contentsline {paragraph}{}{7}{section*.49}}
\@writefile{lof}{\contentsline {figure}{\numberline {9}{\ignorespaces Example of a shock in a CWB simulation, there is a sudden sharp jump in density and pressure as the winds collide\relax }}{7}{figure.caption.50}}
\newlabel{fig:shockexample}{{9}{7}{Example of a shock in a CWB simulation, there is a sudden sharp jump in density and pressure as the winds collide\relax }{figure.caption.50}{}}
\@writefile{toc}{\contentsline {paragraph}{}{7}{section*.51}}
\@writefile{toc}{\contentsline {paragraph}{}{7}{section*.52}}
\@writefile{toc}{\contentsline {paragraph}{}{7}{section*.53}}
\@writefile{toc}{\contentsline {paragraph}{}{7}{section*.54}}
\@writefile{toc}{\contentsline {paragraph}{}{7}{section*.55}}
\@writefile{toc}{\contentsline {paragraph}{}{7}{section*.56}}
\@writefile{toc}{\contentsline {paragraph}{}{7}{section*.57}}
\@writefile{toc}{\contentsline {paragraph}{}{7}{section*.58}}
\@writefile{lof}{\contentsline {figure}{\numberline {10}{\ignorespaces Kelvin-Helmholtz instabilities within a CWB flow \cite  {stevens1992colliding}\relax }}{7}{figure.caption.59}}
\newlabel{fig:khinstabilities}{{10}{7}{Kelvin-Helmholtz instabilities within a CWB flow \cite {stevens1992colliding}\relax }{figure.caption.59}{}}
\citation{zingale2014pyro}
\citation{zingale2014pyro}
\citation{pittard1999x}
\citation{colella1984piecewise}
\citation{colella1984piecewise}
\@writefile{toc}{\contentsline {paragraph}{}{8}{section*.60}}
\@writefile{toc}{\contentsline {paragraph}{}{8}{section*.61}}
\@writefile{toc}{\contentsline {subsection}{\numberline {2.5}Numerical Simulation}{8}{subsection.2.5}}
\@writefile{toc}{\contentsline {paragraph}{}{8}{section*.62}}
\@writefile{toc}{\contentsline {paragraph}{}{8}{section*.64}}
\@writefile{toc}{\contentsline {paragraph}{}{8}{section*.65}}
\@writefile{toc}{\contentsline {paragraph}{}{8}{section*.66}}
\@writefile{toc}{\contentsline {paragraph}{}{8}{section*.67}}
\@writefile{toc}{\contentsline {paragraph}{}{8}{section*.68}}
\@writefile{lof}{\contentsline {figure}{\numberline {12}{\ignorespaces Courant number incorrect}}{8}{figure.caption.69}}
\newlabel{fig:riemannincorrect}{{12}{8}{Courant number incorrect}{figure.caption.69}{}}
\@writefile{toc}{\contentsline {paragraph}{}{8}{section*.70}}
\@writefile{lof}{\contentsline {figure}{\numberline {11}{\ignorespaces 1-D numerical simulation example}}{9}{figure.caption.63}}
\newlabel{fig:numerical-simulation}{{11}{9}{1-D numerical simulation example}{figure.caption.63}{}}
\@writefile{lof}{\contentsline {figure}{\numberline {13}{\ignorespaces Interpolation step PPM method}}{9}{figure.caption.71}}
\newlabel{fig:ppm}{{13}{9}{Interpolation step PPM method}{figure.caption.71}{}}
\@writefile{toc}{\contentsline {paragraph}{}{9}{section*.72}}
\@writefile{toc}{\contentsline {paragraph}{}{9}{section*.73}}
\@writefile{toc}{\contentsline {paragraph}{}{9}{section*.74}}
\@writefile{toc}{\contentsline {section}{\numberline {3}Current Progress}{9}{section.3}}
\@writefile{toc}{\contentsline {subsection}{\numberline {3.1}ARWEN Hydrodynamics Code}{9}{subsection.3.1}}
\@writefile{toc}{\contentsline {paragraph}{}{9}{section*.76}}
\@writefile{lof}{\contentsline {figure}{\numberline {14}{\ignorespaces AMR example}}{10}{figure.caption.75}}
\newlabel{fig:amr}{{14}{10}{AMR example}{figure.caption.75}{}}
\@writefile{lof}{\contentsline {figure}{\numberline {15}{\ignorespaces A comparison of a colliding wind binary system at various timesteps using ARWEN\relax }}{10}{figure.caption.77}}
\newlabel{fig:timecomparison}{{15}{10}{A comparison of a colliding wind binary system at various timesteps using ARWEN\relax }{figure.caption.77}{}}
\@writefile{toc}{\contentsline {paragraph}{}{10}{section*.78}}
\@writefile{toc}{\contentsline {subsection}{\numberline {3.2}Mg Hydrodynamics Code}{10}{subsection.3.2}}
\@writefile{toc}{\contentsline {paragraph}{}{10}{section*.79}}
\@writefile{toc}{\contentsline {paragraph}{}{10}{section*.80}}
\@writefile{toc}{\contentsline {paragraph}{}{10}{section*.81}}
\@writefile{toc}{\contentsline {paragraph}{}{10}{section*.82}}
\citation{pittard20093d}
\citation{pittard20093d}
\citation{pittard20093d}
\citation{pittard20093d}
\@writefile{toc}{\contentsline {paragraph}{}{11}{section*.83}}
\@writefile{lof}{\contentsline {figure}{\numberline {16}{\ignorespaces Final testing to confirm the stability of mg in the CWB case with orbits enabled, based on simulation orbital parameters, where $\eta =0.02$ \cite  {pittard20093d}\relax }}{11}{figure.caption.85}}
\newlabel{fig:orbittest}{{16}{11}{Final testing to confirm the stability of mg in the CWB case with orbits enabled, based on simulation orbital parameters, where $\eta =0.02$ \cite {pittard20093d}\relax }{figure.caption.85}{}}
\@writefile{toc}{\contentsline {subsection}{\numberline {3.3}Difficulties and Challenges}{11}{subsection.3.3}}
\newlabel{sec:challenges}{{3.3}{11}{Difficulties and Challenges}{subsection.3.3}{}}
\@writefile{toc}{\contentsline {paragraph}{}{11}{section*.87}}
\@writefile{toc}{\contentsline {subsubsection}{\numberline {3.3.1}Compiling and SILO library issues}{11}{subsubsection.3.3.1}}
\@writefile{toc}{\contentsline {paragraph}{}{11}{section*.88}}
\@writefile{toc}{\contentsline {paragraph}{}{11}{section*.89}}
\@writefile{toc}{\contentsline {paragraph}{}{11}{section*.90}}
\@writefile{lof}{\contentsline {figure}{\numberline {18}{\ignorespaces Remap intersection}}{11}{figure.caption.91}}
\newlabel{fig:remap}{{18}{11}{Remap intersection}{figure.caption.91}{}}
\@writefile{toc}{\contentsline {paragraph}{}{11}{section*.92}}
\citation{pittard20093d}
\@writefile{lot}{\contentsline {table}{\numberline {2}{\ignorespaces AMR statistics of a typical $120^3$ coarse CWB problem, as can be seen fine detail is only needed in extremely small regions\relax }}{12}{table.caption.84}}
\newlabel{amrmemory}{{2}{12}{AMR statistics of a typical $120^3$ coarse CWB problem, as can be seen fine detail is only needed in extremely small regions\relax }{table.caption.84}{}}
\@writefile{lof}{\contentsline {figure}{\numberline {17}{\ignorespaces Symmetric simulation}}{12}{figure.caption.86}}
\newlabel{fig:orbitsymmetric}{{17}{12}{Symmetric simulation}{figure.caption.86}{}}
\@writefile{toc}{\contentsline {paragraph}{}{12}{section*.93}}
\@writefile{toc}{\contentsline {paragraph}{}{12}{section*.94}}
\@writefile{toc}{\contentsline {paragraph}{}{12}{section*.95}}
\@writefile{lof}{\contentsline {figure}{\numberline {19}{\ignorespaces Comparison of memory usage with AMR disabled and enabled with 4 level depth at various cubic coarse cell values upon initial refinement\relax }}{12}{figure.caption.96}}
\newlabel{fig:memtest}{{19}{12}{Comparison of memory usage with AMR disabled and enabled with 4 level depth at various cubic coarse cell values upon initial refinement\relax }{figure.caption.96}{}}
\@writefile{toc}{\contentsline {paragraph}{}{12}{section*.97}}
\@writefile{toc}{\contentsline {paragraph}{}{13}{section*.98}}
\@writefile{toc}{\contentsline {subsection}{\numberline {3.4}Visualisation, Scripts and Other Work}{13}{subsection.3.4}}
\newlabel{plotting}{{3.4}{13}{Visualisation, Scripts and Other Work}{subsection.3.4}{}}
\@writefile{toc}{\contentsline {paragraph}{}{13}{section*.99}}
\@writefile{toc}{\contentsline {paragraph}{}{13}{section*.100}}
\@writefile{toc}{\contentsline {paragraph}{}{13}{section*.101}}
\@writefile{toc}{\contentsline {paragraph}{}{13}{section*.102}}
\@writefile{lof}{\contentsline {figure}{\numberline {20}{\ignorespaces 3D visualisation}}{13}{figure.caption.103}}
\newlabel{fig:shock3dvis}{{20}{13}{3D visualisation}{figure.caption.103}{}}
\@writefile{toc}{\contentsline {paragraph}{}{13}{section*.104}}
\@writefile{toc}{\contentsline {paragraph}{}{13}{section*.105}}
\@writefile{toc}{\contentsline {paragraph}{}{13}{section*.106}}
\@writefile{toc}{\contentsline {paragraph}{}{13}{section*.107}}
\@writefile{toc}{\contentsline {paragraph}{}{13}{section*.108}}
\@writefile{toc}{\contentsline {paragraph}{}{13}{section*.109}}
\@writefile{toc}{\contentsline {section}{\numberline {4}Progression to Next Year}{13}{section.4}}
\@writefile{toc}{\contentsline {paragraph}{}{13}{section*.110}}
\@writefile{toc}{\contentsline {subsection}{\numberline {4.1}Addition of Features}{13}{subsection.4.1}}
\@writefile{toc}{\contentsline {paragraph}{}{13}{section*.111}}
\citation{herbst2009complex}
\citation{pittard20103d}
\citation{pittard20103d}
\@writefile{toc}{\contentsline {subsubsection}{\numberline {4.1.1}Dust Formation and Destruction}{14}{subsubsection.4.1.1}}
\@writefile{toc}{\contentsline {paragraph}{}{14}{section*.112}}
\@writefile{toc}{\contentsline {paragraph}{}{14}{section*.113}}
\@writefile{lof}{\contentsline {figure}{\numberline {21}{\ignorespaces Solar cooling curve supplied with mg hydrodynamics code\relax }}{14}{figure.caption.114}}
\newlabel{fig:coolcurve}{{21}{14}{Solar cooling curve supplied with mg hydrodynamics code\relax }{figure.caption.114}{}}
\@writefile{toc}{\contentsline {paragraph}{}{14}{section*.115}}
\@writefile{toc}{\contentsline {subsubsection}{\numberline {4.1.2}Chemical Reaction Modelling}{14}{subsubsection.4.1.2}}
\@writefile{toc}{\contentsline {paragraph}{}{14}{section*.116}}
\@writefile{toc}{\contentsline {subsubsection}{\numberline {4.1.3}Ray-Tracing Code}{14}{subsubsection.4.1.3}}
\@writefile{toc}{\contentsline {paragraph}{}{14}{section*.117}}
\@writefile{toc}{\contentsline {paragraph}{}{14}{section*.118}}
\@writefile{lof}{\contentsline {figure}{\numberline {22}{\ignorespaces Broad-band X-ray emission from simulation, ray-tracing code allows for simulation of emission at any wavelength, and would allow for comparison between observational data, in order to verify accuracy \cite  {pittard20103d}\relax }}{14}{figure.caption.119}}
\newlabel{fig:xrayflux}{{22}{14}{Broad-band X-ray emission from simulation, ray-tracing code allows for simulation of emission at any wavelength, and would allow for comparison between observational data, in order to verify accuracy \cite {pittard20103d}\relax }{figure.caption.119}{}}
\@writefile{toc}{\contentsline {subsubsection}{\numberline {4.1.4}mg GPGPU And KNL Rewrite Feasibility}{14}{subsubsection.4.1.4}}
\@writefile{toc}{\contentsline {paragraph}{}{14}{section*.120}}
\@writefile{toc}{\contentsline {paragraph}{}{14}{section*.121}}
\@writefile{toc}{\contentsline {paragraph}{}{15}{section*.122}}
\@writefile{toc}{\contentsline {paragraph}{}{15}{section*.123}}
\@writefile{toc}{\contentsline {paragraph}{}{15}{section*.124}}
\@writefile{toc}{\contentsline {paragraph}{}{15}{section*.125}}
\@writefile{toc}{\contentsline {paragraph}{}{15}{section*.126}}
\@writefile{toc}{\contentsline {paragraph}{}{15}{section*.127}}
\@writefile{toc}{\contentsline {paragraph}{}{15}{section*.128}}
\@writefile{lof}{\contentsline {figure}{\numberline {23}{\ignorespaces Time taken for simulation to complete at various grid resolutions\relax }}{15}{figure.caption.129}}
\newlabel{fig:time-taken}{{23}{15}{Time taken for simulation to complete at various grid resolutions\relax }{figure.caption.129}{}}
\@writefile{toc}{\contentsline {paragraph}{}{15}{section*.130}}
\@writefile{lof}{\contentsline {figure}{\numberline {24}{\ignorespaces 2048 coarse grid simulation running at various core counts, indicates that code is not utilising 4-way hyperthreading effectively\relax }}{16}{figure.caption.131}}
\newlabel{fig:optimisation}{{24}{16}{2048 coarse grid simulation running at various core counts, indicates that code is not utilising 4-way hyperthreading effectively\relax }{figure.caption.131}{}}
\@writefile{toc}{\contentsline {paragraph}{}{16}{section*.133}}
\@writefile{toc}{\contentsline {paragraph}{}{16}{section*.134}}
\@writefile{toc}{\contentsline {paragraph}{}{16}{section*.135}}
\@writefile{toc}{\contentsline {section}{\numberline {5}Conclusion}{16}{section.5}}
\@writefile{toc}{\contentsline {paragraph}{}{16}{section*.136}}
\@writefile{toc}{\contentsline {paragraph}{}{16}{section*.137}}
\@writefile{toc}{\contentsline {paragraph}{}{16}{section*.138}}
\citation{herbst2009complex}
\citation{rauw2002phase}
\citation{tuthill1999dusty}
\citation{stevens1992colliding}
\citation{pittard20093d}
\citation{pittard20103d}
\bibdata{biblio}
\bibcite{castor1975radiation}{Castor et\nobreakspace  {}al., 1975}
\bibcite{colella1984piecewise}{Colella and Woodward, 1984}
\bibcite{draine2001infrared}{Draine and Li, 2001}
\bibcite{friend1986theory}{Friend and Abbott, 1986}
\bibcite{herbst2009complex}{Herbst and Van\nobreakspace  {}Dishoeck, 2009}
\bibcite{krugel2002physics}{Krugel, 2002}
\@writefile{lot}{\contentsline {table}{\numberline {3}{\ignorespaces Performance of Xeon Phi Compared to a single compute node in ARC2 and ARC 3\relax }}{17}{table.caption.132}}
\newlabel{xeonphi}{{3}{17}{Performance of Xeon Phi Compared to a single compute node in ARC2 and ARC 3\relax }{table.caption.132}{}}
\@writefile{toc}{\contentsline {section}{List of Figures}{17}{section*.138}}
\@writefile{toc}{\contentsline {section}{References}{17}{section*.139}}
\bibcite{kudritzki2002line}{Kudritzki, 2002}
\bibcite{lamers1999introduction}{Lamers and Cassinelli, 1999}
\bibcite{lau2017stagnant}{Lau et\nobreakspace  {}al., 2017}
\bibcite{pittard20093d}{Pittard, 2009}
\bibcite{pittard20103d}{Pittard and Parkin, 2010}
\bibcite{pittard1999x}{Pittard, 1999}
\bibcite{prilutskii1976x}{Prilutskii and Usov, 1976}
\bibcite{puls2008mass}{Puls et\nobreakspace  {}al., 2008}
\bibcite{rauw2002phase}{Rauw et\nobreakspace  {}al., 2002}
\bibcite{rosswog2007introduction}{Rosswog and Br{\"u}ggen, 2007}
\bibcite{sana2012binary}{Sana et\nobreakspace  {}al., 2012}
\bibcite{sana2003colliding}{Sana and Rauw, 2003}
\bibcite{stevens1992colliding}{Stevens et\nobreakspace  {}al., 1992}
\bibcite{stevens1994stagnation}{Stevens and Pollock, 1994}
\bibcite{tielens1994physics}{Tielens et\nobreakspace  {}al., 1994}
\bibcite{tuthill1999dusty}{Tuthill et\nobreakspace  {}al., 1999}
\bibcite{vink2000radiation}{Vink, 2000}
\bibcite{zingale2014pyro}{Zingale, 2014}
\bibstyle{plain}
\@writefile{toc}{\contentsline {section}{\numberline {6}Appendix}{19}{section.6}}
\@writefile{toc}{\contentsline {subsection}{\numberline {6.1}Courses Attended}{19}{subsection.6.1}}
\newlabel{attendedcourses}{{6.1}{19}{Courses Attended}{subsection.6.1}{}}
\newlabel{my-label}{{\caption@xref {my-label}{ on input line 839}}{19}{Courses Attended}{table.caption.141}{}}
